"grav_30 25";204505.900879;1027.744750;130.401794;0.000000;0.000000;1.000000;0.000050;
"grav_10 75";204496.380859;1036.754638;120.088249;0.000000;0.000000;1.000000;0.000021;
"grav_10 75";204511.305664;1017.193726;330.736206;0.000000;0.000000;1.000000;-0.000042;
"grav_30 25";204528.602051;1000.379822;269.372437;0.000000;0.000000;1.000000;0.000116;
"grav_30 25";204542.732422;997.570312;89.209541;0.000000;0.000000;1.000000;-0.000033;
"grav_30 25";204517.895020;1006.761841;299.023071;0.000000;0.000000;1.000000;0.000080;
"grav_7 100";204553.778320;992.057373;120.664902;0.000000;0.000000;1.000000;0.000238;
"grav_10 100";204565.451172;982.358398;128.725616;0.000000;0.000000;1.000000;-0.000297;
"grav_10 100";204577.578613;970.697144;309.336243;0.000000;0.000000;1.000000;-0.000223;
"grav_10 75";204608.581543;945.344849;299.538666;0.000000;0.000000;1.000000;0.000004;
"grav_10 75";204619.750977;937.883300;118.602272;0.000000;0.000000;1.000000;-0.000006;
"grav_12";204629.845703;930.552795;308.433868;0.000000;0.000000;1.000000;-0.000044;
"grav_12";204588.916016;960.740417;308.433868;0.000000;0.000000;1.000000;0.001250;
"grav_12";204598.627441;952.883545;309.465302;0.000000;0.000000;1.000000;0.000042;
"grav_25";204644.522949;918.893127;308.949554;0.000000;0.000000;1.000000;0.000001;
"grav_6konec";204821.762695;952.897095;88.822777;0.000000;0.000000;1.000000;0.001510;
"grav_6konec";204848.929688;932.731262;2.191424;0.000000;0.000000;1.000000;-0.000083;
"grav_10 100";204843.883789;920.995361;23.204792;0.000000;0.000000;1.000000;0.000000;
"grav_7 100";204831.541504;953.207032;84.697479;0.000000;0.000000;1.000000;0.000307;
"grav_15 75";204866.656738;941.173523;61.234848;0.000000;0.000000;1.000000;-0.000046;
"grav_60 10";204843.436523;951.535034;91.916763;0.000000;0.000000;1.000000;-0.000333;
"grav_30 25";204852.812989;933.577636;30.810808;0.000000;0.000000;1.000000;-0.000003;
"grav_30 25";204848.244628;941.370971;153.022675;0.000000;0.000000;1.000000;-0.000002;
"grav_6konec";204917.312012;945.293579;263.571198;0.000000;0.000000;1.000000;0.000044;
"grav_22 50";204885.635256;945.182312;76.446877;0.000000;0.000000;1.000001;0.006947;
"grav_15 75";204904.168945;945.076904;263.632263;0.000000;0.000000;1.000000;0.000082;
"grav_25";204663.889648;903.234924;308.949554;0.000000;0.000000;1.000000;0.000001;
"grav_25";204702.701172;871.831726;308.949554;0.000000;0.000000;1.000000;0.000003;
"grav_25";204683.333984;887.489929;308.949554;0.000000;0.000000;1.000000;0.000001;
"grav_15 75";204710.560547;821.959228;230.498764;0.000000;0.000000;1.000000;-0.000396;
"grav_30 25";204683.066895;816.875855;274.400299;0.000000;0.000000;1.000000;0.000157;
"grav_30 25";204695.618652;815.629944;245.394287;0.000000;0.000000;1.000000;0.000105;
"grav_30 25";204672.767579;824.078309;303.535065;0.000000;0.000000;1.000000;0.000748;
"grav_10 25";204660.813965;841.612304;324.290436;0.000000;0.000000;1.000000;-0.000138;
"grav_10 25";204658.985840;845.558105;334.217041;0.000000;0.000000;1.000000;-0.000162;
"grav_6konec";204657.648926;850.232483;166.043182;0.000000;0.000000;1.000000;0.000179;
"grav_7 100";204665.848633;833.964111;143.679779;0.000000;0.000000;1.000000;-0.000827;
"grav_6konec";204733.157715;844.952271;209.745560;0.000000;0.000000;1.000000;-0.000007;
"grav_25";204764.816895;839.099182;89.338432;0.000000;0.000000;1.000000;0.000010;
"grav_25";204722.020020;856.119690;308.949554;0.000000;0.000000;1.000000;-0.000004;
"grav_25";204789.844727;839.300232;89.338432;0.000000;0.000000;1.000000;0.000008;
"grav_10 25";204738.200197;842.988647;297.347107;0.000000;0.000000;1.000000;-0.000006;
"grav_6";204734.287109;846.155212;308.820557;0.000000;0.000000;1.000000;0.000006;
"grav_15 75";204725.080566;834.505432;212.579514;0.000000;0.000000;1.000000;-0.000372;
"grav_30 25";204745.697754;840.150575;266.794098;0.000000;0.000000;1.000000;0.000017;
"grav_30 25";204824.133790;874.916200;337.697632;0.000000;0.000000;1.000000;0.000000;
"grav_10 100";204835.408691;905.261353;202.851990;0.000000;0.000000;1.000000;0.000005;
"grav_15 75";204827.823730;889.675537;16.887920;0.000000;0.000000;1.000000;0.000000;
"grav_6konec";204824.474121;841.639465;119.891441;0.000000;0.000000;1.000000;0.000005;
"grav_10 50";204825.844238;850.612305;189.186935;0.000000;0.000000;1.000000;0.000006;
"grav_10 50";204812.762695;839.582092;258.801422;0.000000;0.000000;1.000000;-0.000021;
"grav_10 75";204856.127441;826.894348;279.170044;0.000000;0.000000;1.000000;0.006287;
"grav_10 75";204843.955566;831.139466;289.354340;0.000000;0.000000;1.000000;0.002863;
"grav_10 75";204869.351563;823.494079;99.651680;0.000000;0.000000;1.000000;0.010408;
"grav_60 10";204821.365723;841.990967;199.113495;0.000000;0.000000;1.000000;-0.000006;
"grav_6";204805.523926;839.374084;88.564964;0.000000;0.000000;1.000000;-0.000013;
"grav_30 25";204826.616210;861.000671;158.118332;0.000000;0.000000;1.000000;0.000000;
"grav_12";204832.648438;836.988586;299.022949;0.000000;0.000000;1.000000;-0.000036;
"grav_6konec";204887.902344;812.234436;317.457947;0.000000;0.000000;1.000000;-0.000252;
"grav_30 25";204881.421875;818.108886;109.964920;0.000000;0.000000;1.000000;-0.004403;
